StartFontMetrics 4.1
FontName TempusSansITC
FullName Tempus Sans ITC
Notice Copyright [c] International Typeface Corporation 1996.  Portions Copyright [c] Microsoft Corporation 1996.  All rights reserved
EncodingScheme FontSpecific
FamilyName Tempus Sans ITC
Weight Regular
Version Version 1.05
Characters 219
ItalicAngle 0.0
Ascender 964
Descender -341
UnderlineThickness 50
UnderlinePosition -75
IsFixedPitch false
FontBBox -215 -341 1081 964
StartCharMetrics 256
C 0 ; WX 1000 ; N .notdef ; B 125 0 875 750 ;
C 1 ; WX 1000 ; N .notdef ; B 125 0 875 750 ;
C 2 ; WX 1000 ; N .notdef ; B 125 0 875 750 ;
C 3 ; WX 1000 ; N .notdef ; B 125 0 875 750 ;
C 4 ; WX 1000 ; N .notdef ; B 125 0 875 750 ;
C 5 ; WX 1000 ; N .notdef ; B 125 0 875 750 ;
C 6 ; WX 1000 ; N .notdef ; B 125 0 875 750 ;
C 7 ; WX 1000 ; N .notdef ; B 125 0 875 750 ;
C 8 ; WX 1000 ; N .notdef ; B 125 0 875 750 ;
C 9 ; WX 1000 ; N .notdef ; B 125 0 875 750 ;
C 10 ; WX 1000 ; N .notdef ; B 125 0 875 750 ;
C 11 ; WX 1000 ; N .notdef ; B 125 0 875 750 ;
C 12 ; WX 1000 ; N .notdef ; B 125 0 875 750 ;
C 13 ; WX 1000 ; N .notdef ; B 125 0 875 750 ;
C 14 ; WX 1000 ; N .notdef ; B 125 0 875 750 ;
C 15 ; WX 1000 ; N .notdef ; B 125 0 875 750 ;
C 16 ; WX 1000 ; N .notdef ; B 125 0 875 750 ;
C 17 ; WX 1000 ; N .notdef ; B 125 0 875 750 ;
C 18 ; WX 1000 ; N .notdef ; B 125 0 875 750 ;
C 19 ; WX 1000 ; N .notdef ; B 125 0 875 750 ;
C 20 ; WX 1000 ; N .notdef ; B 125 0 875 750 ;
C 21 ; WX 1000 ; N .notdef ; B 125 0 875 750 ;
C 22 ; WX 1000 ; N .notdef ; B 125 0 875 750 ;
C 23 ; WX 1000 ; N .notdef ; B 125 0 875 750 ;
C 24 ; WX 1000 ; N .notdef ; B 125 0 875 750 ;
C 25 ; WX 1000 ; N .notdef ; B 125 0 875 750 ;
C 26 ; WX 1000 ; N .notdef ; B 125 0 875 750 ;
C 27 ; WX 1000 ; N .notdef ; B 125 0 875 750 ;
C 28 ; WX 1000 ; N .notdef ; B 125 0 875 750 ;
C 29 ; WX 1000 ; N .notdef ; B 125 0 875 750 ;
C 30 ; WX 1000 ; N .notdef ; B 125 0 875 750 ;
C 31 ; WX 1000 ; N .notdef ; B 125 0 875 750 ;
C 32 ; WX 255 ; N space ; B 101 -27 198 722 ;
C 33 ; WX 308 ; N exclam ; B 101 -27 198 722 ;
C 34 ; WX 378 ; N quotedbl ; B 100 415 394 693 ;
C 35 ; WX 650 ; N numbersign ; B 23 -13 627 671 ;
C 36 ; WX 408 ; N dollar ; B 49 -212 352 861 ;
C 37 ; WX 613 ; N percent ; B 68 -77 577 687 ;
C 38 ; WX 739 ; N ampersand ; B 50 -84 709 660 ;
C 39 ; WX 250 ; N quotesingle ; B 100 415 266 688 ;
C 40 ; WX 430 ; N parenleft ; B 71 -54 400 723 ;
C 41 ; WX 430 ; N parenright ; B 90 -72 328 741 ;
C 42 ; WX 335 ; N asterisk ; B 50 441 285 686 ;
C 43 ; WX 500 ; N plus ; B 62 132 438 506 ;
C 44 ; WX 250 ; N comma ; B 50 -130 166 92 ;
C 45 ; WX 476 ; N hyphen ; B 50 176 426 259 ;
C 46 ; WX 250 ; N period ; B 85 -4 164 108 ;
C 47 ; WX 481 ; N slash ; B 20 -50 460 711 ;
C 48 ; WX 664 ; N zero ; B 39 -8 624 673 ;
C 49 ; WX 376 ; N one ; B 8 0 294 710 ;
C 50 ; WX 561 ; N two ; B 14 -8 511 680 ;
C 51 ; WX 485 ; N three ; B 29 -3 456 684 ;
C 52 ; WX 570 ; N four ; B 22 -6 540 703 ;
C 53 ; WX 501 ; N five ; B 47 -3 446 686 ;
C 54 ; WX 495 ; N six ; B 25 -4 441 700 ;
C 55 ; WX 506 ; N seven ; B 31 -42 489 685 ;
C 56 ; WX 532 ; N eight ; B 40 -6 477 679 ;
C 57 ; WX 508 ; N nine ; B 43 -51 470 685 ;
C 58 ; WX 250 ; N colon ; B 83 -12 166 355 ;
C 59 ; WX 250 ; N semicolon ; B 50 -130 166 355 ;
C 60 ; WX 300 ; N less ; B 25 138 258 539 ;
C 61 ; WX 500 ; N equal ; B 61 226 438 460 ;
C 62 ; WX 300 ; N greater ; B 42 140 273 540 ;
C 63 ; WX 336 ; N question ; B 90 -7 296 711 ;
C 64 ; WX 887 ; N at ; B 43 -8 844 689 ;
C 65 ; WX 753 ; N A ; B -10 -36 718 704 ;
C 66 ; WX 534 ; N B ; B 100 -9 484 702 ;
C 67 ; WX 622 ; N C ; B 44 -42 582 688 ;
C 68 ; WX 657 ; N D ; B 101 -24 612 684 ;
C 69 ; WX 543 ; N E ; B 100 -11 513 679 ;
C 70 ; WX 525 ; N F ; B 100 -7 525 679 ;
C 71 ; WX 698 ; N G ; B 45 -22 648 680 ;
C 72 ; WX 770 ; N H ; B 100 -14 670 723 ;
C 73 ; WX 300 ; N I ; B 100 -8 200 673 ;
C 74 ; WX 387 ; N J ; B 0 -51 297 688 ;
C 75 ; WX 657 ; N K ; B 100 -7 657 677 ;
C 76 ; WX 494 ; N L ; B 100 -12 494 680 ;
C 77 ; WX 895 ; N M ; B 60 -21 835 703 ;
C 78 ; WX 818 ; N N ; B 100 -18 728 676 ;
C 79 ; WX 776 ; N O ; B 46 -9 731 682 ;
C 80 ; WX 552 ; N P ; B 100 -7 512 681 ;
C 81 ; WX 776 ; N Q ; B 46 -15 756 682 ;
C 82 ; WX 611 ; N R ; B 101 -18 610 673 ;
C 83 ; WX 415 ; N S ; B 38 -42 374 679 ;
C 84 ; WX 537 ; N T ; B 31 -7 587 679 ;
C 85 ; WX 731 ; N U ; B 80 -16 721 671 ;
C 86 ; WX 657 ; N V ; B 50 -22 687 687 ;
C 87 ; WX 997 ; N W ; B 72 -14 990 667 ;
C 88 ; WX 623 ; N X ; B 22 -8 604 686 ;
C 89 ; WX 570 ; N Y ; B 20 1 560 673 ;
C 90 ; WX 627 ; N Z ; B 30 -20 596 699 ;
C 91 ; WX 420 ; N bracketleft ; B 155 -85 300 725 ;
C 92 ; WX 334 ; N backslash ; B 6 -51 319 711 ;
C 93 ; WX 420 ; N bracketright ; B 65 -87 264 742 ;
C 94 ; WX 1000 ; N asciicircum ; B 206 440 793 712 ;
C 95 ; WX 500 ; N underscore ; B 0 -183 500 -133 ;
C 96 ; WX 500 ; N grave ; B 92 549 369 675 ;
C 97 ; WX 436 ; N a ; B 26 -101 366 486 ;
C 98 ; WX 531 ; N b ; B 70 -25 496 789 ;
C 99 ; WX 425 ; N c ; B 40 -8 405 453 ;
C 100 ; WX 522 ; N d ; B 35 -122 452 758 ;
C 101 ; WX 457 ; N e ; B 35 -18 422 461 ;
C 102 ; WX 312 ; N f ; B 45 -36 464 885 ;
C 103 ; WX 508 ; N g ; B 35 -297 428 496 ;
C 104 ; WX 544 ; N h ; B 80 -23 463 837 ;
C 105 ; WX 257 ; N i ; B 82 -21 200 625 ;
C 106 ; WX 257 ; N j ; B 89 -292 202 625 ;
C 107 ; WX 508 ; N k ; B 85 -8 508 767 ;
C 108 ; WX 257 ; N l ; B 80 -7 177 842 ;
C 109 ; WX 865 ; N m ; B 80 -47 785 475 ;
C 110 ; WX 568 ; N n ; B 80 -58 487 473 ;
C 111 ; WX 585 ; N o ; B 35 -5 550 446 ;
C 112 ; WX 500 ; N p ; B 30 -285 466 508 ;
C 113 ; WX 525 ; N q ; B 35 -341 475 529 ;
C 114 ; WX 343 ; N r ; B 80 -5 343 480 ;
C 115 ; WX 342 ; N s ; B 34 -14 303 470 ;
C 116 ; WX 351 ; N t ; B -14 -25 343 676 ;
C 117 ; WX 561 ; N u ; B 81 -10 481 463 ;
C 118 ; WX 456 ; N v ; B 20 -23 463 469 ;
C 119 ; WX 663 ; N w ; B 28 -21 649 458 ;
C 120 ; WX 454 ; N x ; B 7 -4 448 458 ;
C 121 ; WX 503 ; N y ; B 13 -292 490 467 ;
C 122 ; WX 430 ; N z ; B 20 -30 423 477 ;
C 123 ; WX 440 ; N braceleft ; B 84 -84 352 722 ;
C 124 ; WX 200 ; N bar ; B 60 -40 140 822 ;
C 125 ; WX 440 ; N braceright ; B 69 -96 338 732 ;
C 126 ; WX 833 ; N asciitilde ; B 87 225 747 370 ;
C 127 ; WX 1000 ; N .notdef ; B 125 0 875 750 ;
C 128 ; WX 664 ; N Euro ; B 24 -42 633 688 ;
C 129 ; WX 1000 ; N .notdef ; B 125 0 875 750 ;
C 130 ; WX 248 ; N quotesinglbase ; B 17 -140 166 95 ;
C 131 ; WX 504 ; N florin ; B -215 -279 584 693 ;
C 132 ; WX 389 ; N quotedblbase ; B 42 -140 307 95 ;
C 133 ; WX 1000 ; N ellipsis ; B 127 -4 872 108 ;
C 134 ; WX 500 ; N dagger ; B 59 -153 440 696 ;
C 135 ; WX 500 ; N daggerdbl ; B 60 -153 441 696 ;
C 136 ; WX 500 ; N circumflex ; B 87 541 413 728 ;
C 137 ; WX 915 ; N perthousand ; B 68 -69 879 687 ;
C 138 ; WX 415 ; N Scaron ; B 38 -42 386 962 ;
C 139 ; WX 352 ; N guilsinglleft ; B 30 17 262 418 ;
C 140 ; WX 1099 ; N OE ; B 46 -11 1069 682 ;
C 141 ; WX 1000 ; N .notdef ; B 125 0 875 750 ;
C 142 ; WX 627 ; N Zcaron ; B 30 -20 596 962 ;
C 143 ; WX 1000 ; N .notdef ; B 125 0 875 750 ;
C 144 ; WX 389 ; N quotedblbase ; B 42 -140 307 95 ;
C 145 ; WX 250 ; N quoteleft ; B 56 465 197 695 ;
C 146 ; WX 250 ; N quoteright ; B 55 471 195 703 ;
C 147 ; WX 389 ; N quotedblleft ; B 69 451 319 687 ;
C 148 ; WX 389 ; N quotedblright ; B 76 460 313 691 ;
C 149 ; WX 500 ; N bullet ; B 46 150 454 533 ;
C 150 ; WX 571 ; N endash ; B 50 193 521 278 ;
C 151 ; WX 1101 ; N emdash ; B 50 184 1051 270 ;
C 152 ; WX 500 ; N tilde ; B 86 544 413 669 ;
C 153 ; WX 292 ; N trademark ; B 7 587 269 706 ;
C 154 ; WX 342 ; N scaron ; B 8 -14 333 726 ;
C 155 ; WX 352 ; N guilsinglright ; B 30 29 261 429 ;
C 156 ; WX 920 ; N oe ; B 35 -20 898 461 ;
C 157 ; WX 1000 ; N .notdef ; B 125 0 875 750 ;
C 158 ; WX 430 ; N zcaron ; B 20 -30 423 726 ;
C 159 ; WX 570 ; N Ydieresis ; B 20 1 560 901 ;
C 160 ; WX 255 ; N nbspace ; B -10 -36 718 911 ;
C 161 ; WX 308 ; N exclamdown ; B 110 -24 205 723 ;
C 162 ; WX 464 ; N cent ; B 59 -107 449 612 ;
C 163 ; WX 572 ; N sterling ; B 33 -13 562 678 ;
C 164 ; WX 606 ; N currency ; B 42 171 565 693 ;
C 165 ; WX 675 ; N yen ; B 19 -52 675 672 ;
C 166 ; WX 500 ; N brokenbar ; B 219 -171 281 699 ;
C 167 ; WX 600 ; N section ; B 62 -159 537 679 ;
C 168 ; WX 500 ; N dieresis ; B 105 553 395 665 ;
C 169 ; WX 271 ; N copyright ; B 33 495 253 715 ;
C 170 ; WX 300 ; N ordfeminine ; B 30 346 250 697 ;
C 171 ; WX 600 ; N guillemotleft ; B 13 17 493 418 ;
C 172 ; WX 833 ; N logicalnot ; B 124 174 709 419 ;
C 173 ; WX 476 ; N sfthyphen ; B 50 176 426 259 ;
C 174 ; WX 271 ; N registered ; B 33 495 253 715 ;
C 175 ; WX 500 ; N overscore ; B 0 858 500 908 ;
C 176 ; WX 254 ; N degree ; B 30 477 223 637 ;
C 177 ; WX 833 ; N plusminus ; B 124 20 709 576 ;
C 178 ; WX 370 ; N twosuperior ; B 9 261 337 674 ;
C 179 ; WX 320 ; N threesuperior ; B 19 264 301 676 ;
C 180 ; WX 500 ; N acute ; B 132 548 407 673 ;
C 181 ; WX 551 ; N mu1 ; B -54 -208 513 522 ;
C 182 ; WX 581 ; N paragraph ; B 69 -97 526 708 ;
C 183 ; WX 181 ; N periodcentered ; B 50 271 131 383 ;
C 184 ; WX 500 ; N cedilla ; B 219 -181 280 38 ;
C 185 ; WX 248 ; N onesuperior ; B 5 266 196 692 ;
C 186 ; WX 370 ; N ordmasculine ; B 31 404 340 675 ;
C 187 ; WX 600 ; N guillemotright ; B 60 13 507 453 ;
C 188 ; WX 940 ; N onequarter ; B 5 -77 921 691 ;
C 189 ; WX 934 ; N onehalf ; B 5 -77 903 691 ;
C 190 ; WX 1009 ; N threequarters ; B 18 -77 990 685 ;
C 191 ; WX 336 ; N questiondown ; B 40 -7 246 712 ;
C 192 ; WX 753 ; N Agrave ; B -10 -36 718 911 ;
C 193 ; WX 753 ; N Aacute ; B -10 -36 718 909 ;
C 194 ; WX 753 ; N Acircumflex ; B -10 -36 718 964 ;
C 195 ; WX 753 ; N Atilde ; B -10 -36 718 905 ;
C 196 ; WX 753 ; N Adieresis ; B -10 -36 718 901 ;
C 197 ; WX 753 ; N Aring ; B -10 -36 718 942 ;
C 198 ; WX 1111 ; N AE ; B 0 -35 1081 729 ;
C 199 ; WX 622 ; N Ccedilla ; B 44 -212 582 688 ;
C 200 ; WX 543 ; N Egrave ; B 100 -11 513 911 ;
C 201 ; WX 543 ; N Eacute ; B 100 -11 513 909 ;
C 202 ; WX 543 ; N Ecircumflex ; B 100 -11 513 964 ;
C 203 ; WX 543 ; N Edieresis ; B 100 -11 513 901 ;
C 204 ; WX 300 ; N Igrave ; B -8 -8 270 911 ;
C 205 ; WX 300 ; N Iacute ; B 32 -8 308 909 ;
C 206 ; WX 300 ; N Icircumflex ; B -13 -8 313 964 ;
C 207 ; WX 300 ; N Idieresis ; B 5 -8 295 901 ;
C 208 ; WX 657 ; N Eth ; B -4 -24 612 684 ;
C 209 ; WX 818 ; N Ntilde ; B 100 -18 728 905 ;
C 210 ; WX 776 ; N Ograve ; B 46 -9 731 911 ;
C 211 ; WX 776 ; N Oacute ; B 46 -9 731 909 ;
C 212 ; WX 776 ; N Ocircumflex ; B 46 -9 731 964 ;
C 213 ; WX 776 ; N Otilde ; B 46 -9 731 905 ;
C 214 ; WX 776 ; N Odieresis ; B 46 -9 731 901 ;
C 215 ; WX 833 ; N multiply ; B 147 26 691 571 ;
C 216 ; WX 776 ; N Oslash ; B 46 -61 732 784 ;
C 217 ; WX 731 ; N Ugrave ; B 80 -16 721 911 ;
C 218 ; WX 731 ; N Uacute ; B 80 -16 721 909 ;
C 219 ; WX 731 ; N Ucircumflex ; B 80 -16 721 964 ;
C 220 ; WX 731 ; N Udieresis ; B 80 -16 721 901 ;
C 221 ; WX 570 ; N Yacute ; B 20 1 560 909 ;
C 222 ; WX 552 ; N Thorn ; B 100 -7 512 683 ;
C 223 ; WX 583 ; N germandbls ; B 20 -321 553 817 ;
C 224 ; WX 436 ; N agrave ; B 26 -101 366 675 ;
C 225 ; WX 436 ; N aacute ; B 26 -101 366 673 ;
C 226 ; WX 436 ; N acircumflex ; B 25 -101 366 728 ;
C 227 ; WX 436 ; N atilde ; B 24 -101 366 669 ;
C 228 ; WX 436 ; N adieresis ; B 26 -101 366 665 ;
C 229 ; WX 436 ; N aring ; B 26 -101 366 706 ;
C 230 ; WX 742 ; N ae ; B 25 -147 707 470 ;
C 231 ; WX 433 ; N ccedilla ; B 35 -175 400 453 ;
C 232 ; WX 457 ; N egrave ; B 35 -18 422 675 ;
C 233 ; WX 457 ; N eacute ; B 35 -18 422 673 ;
C 234 ; WX 457 ; N ecircumflex ; B 35 -18 422 728 ;
C 235 ; WX 457 ; N edieresis ; B 35 -18 422 665 ;
C 236 ; WX 257 ; N igrave ; B -36 -21 241 675 ;
C 237 ; WX 257 ; N iacute ; B 4 -21 279 673 ;
C 238 ; WX 257 ; N icircumflex ; B -41 -21 285 728 ;
C 239 ; WX 257 ; N idieresis ; B -23 -21 267 665 ;
C 240 ; WX 585 ; N eth ; B 35 -5 550 729 ;
C 241 ; WX 568 ; N ntilde ; B 80 -58 487 669 ;
C 242 ; WX 585 ; N ograve ; B 35 -5 550 675 ;
C 243 ; WX 585 ; N oacute ; B 35 -5 550 673 ;
C 244 ; WX 585 ; N ocircumflex ; B 35 -5 550 728 ;
C 245 ; WX 585 ; N otilde ; B 35 -5 550 669 ;
C 246 ; WX 585 ; N odieresis ; B 35 -5 550 665 ;
C 247 ; WX 833 ; N divide ; B 124 66 709 530 ;
C 248 ; WX 539 ; N oslash ; B 12 -129 528 533 ;
C 249 ; WX 561 ; N ugrave ; B 81 -10 481 675 ;
C 250 ; WX 561 ; N uacute ; B 81 -10 481 673 ;
C 251 ; WX 561 ; N ucircumflex ; B 81 -10 481 728 ;
C 252 ; WX 561 ; N udieresis ; B 81 -10 481 665 ;
C 253 ; WX 503 ; N yacute ; B 13 -292 490 673 ;
C 254 ; WX 500 ; N thorn ; B 30 -285 466 796 ;
C 255 ; WX 503 ; N ydieresis ; B 13 -292 490 665 ;
EndCharMetrics
EndFontMetrics
